{
  "kind": "collectionType",
  "collectionName": "tags",
  "info": {
    "singularName": "tag",
    "pluralName": "tags",
    "displayName": "tag",
    "description": ""
  },
  "options": {
    "draftAndPublish": false
  },
  "pluginOptions": {},
  "attributes": {
    "libelle": {
      "type": "string"
    },
    "description": {
      "type": "text"
    },
    "count_question": {
      "type": "integer",
      "default": 0
    }
  }
}
