{
  "kind": "collectionType",
  "collectionName": "profils",
  "info": {
    "singularName": "profil",
    "pluralName": "profils",
    "displayName": "profil",
    "description": ""
  },
  "options": {
    "draftAndPublish": false
  },
  "pluginOptions": {},
  "attributes": {
    "pic": {
      "type": "media",
      "multiple": false,
      "required": false,
      "allowedTypes": [
        "images",
        "files",
        "videos",
        "audios"
      ]
    },
    "user": {
      "type": "relation",
      "relation": "oneToOne",
      "target": "plugin::users-permissions.user",
      "mappedBy": "profil"
    }
  }
}
